Exploration of Health Data of Hugo Certuche
…
            Exploration of Health Data of Hugo Certuche

         January 1, 0001 

This project was a very interesting one and as such I thought loud and hard about what data I was going to use for it! I am quite passionate about health and fitness. The variables that I collected using MyFitnessPal are Calories, which is the number that I consumed each day and EnoughFiber which is whether or not I got the recommended amount of fiber for the day. The variables that I got from my workout tracker are MaxHR, which is my maximum heart rate, AvgHR, which is my average heart rate, and WoDuration which is the duration of my workout. I expect that there will be a positive correlation between AvgHR and MaxHR.

1 Datasets

library(tidyverse)
HeartRateStats <- read_csv("HeartRateStatsss.csv")
HR <- HeartRateStats
HR

## # A tibble: 50 x 4
##      Day MaxHR AvgHR WoDuration
##    <dbl> <dbl> <dbl>      <dbl>
##  1     1   184   149         65
##  2     2   175   109         64
##  3     3   184   116         80
##  4     4   160   100         59
##  5     5   180   142         68
##  6     6   170   124         70
##  7     7   180   142         85
##  8     8   160   100         86
##  9     9   169   116         89
## 10    10   165   108         68
## # … with 40 more rows

HeartRateStats

## # A tibble: 50 x 4
##      Day MaxHR AvgHR WoDuration
##    <dbl> <dbl> <dbl>      <dbl>
##  1     1   184   149         65
##  2     2   175   109         64
##  3     3   184   116         80
##  4     4   160   100         59
##  5     5   180   142         68
##  6     6   170   124         70
##  7     7   180   142         85
##  8     8   160   100         86
##  9     9   169   116         89
## 10    10   165   108         68
## # … with 40 more rows

MyFitnessPalStatsProject <- read_csv("MyFitnessPalStatsProject.csv")
HR

## # A tibble: 50 x 4
##      Day MaxHR AvgHR WoDuration
##    <dbl> <dbl> <dbl>      <dbl>
##  1     1   184   149         65
##  2     2   175   109         64
##  3     3   184   116         80
##  4     4   160   100         59
##  5     5   180   142         68
##  6     6   170   124         70
##  7     7   180   142         85
##  8     8   160   100         86
##  9     9   169   116         89
## 10    10   165   108         68
## # … with 40 more rows

HR %>% pivot_longer(cols = c("Day", "MaxHR", "AvgHR", "WoDuration"), 
    names_to = "varr", values_to = "value")

## # A tibble: 200 x 2
##    varr       value
##    <chr>      <dbl>
##  1 Day            1
##  2 MaxHR        184
##  3 AvgHR        149
##  4 WoDuration    65
##  5 Day            2
##  6 MaxHR        175
##  7 AvgHR        109
##  8 WoDuration    64
##  9 Day            3
## 10 MaxHR        184
## # … with 190 more rows

I loaded in my datasets for my workout stats and food stats. My data was already tidy but I did use pivot_longer to demonstrate how that I can manipulate the data for my workout data accordingly.

Joining

bigboi <- full_join(HR, MyFitnessPalStatsProject, by = c("Day"))

bigboi

## # A tibble: 50 x 6
##      Day MaxHR AvgHR WoDuration Calories EnoughFiber
##    <dbl> <dbl> <dbl>      <dbl>    <dbl> <chr>      
##  1     1   184   149         65     1677 No         
##  2     2   175   109         64     1683 No         
##  3     3   184   116         80     1686 No         
##  4     4   160   100         59     1684 No         
##  5     5   180   142         68     1682 No         
##  6     6   170   124         70     1068 No         
##  7     7   180   142         85     1680 No         
##  8     8   160   100         86     2250 Yes        
##  9     9   169   116         89     1686 No         
## 10    10   165   108         68     1689 No         
## # … with 40 more rows

I did a full_join for this datasets and had no variables that were dropped from the dataset! I choose a full join because I did not want anything to be dropped.

Summary Statistics

bigboi %>% mutate(pulses = AvgHR * WoDuration)

## # A tibble: 50 x 7
##      Day MaxHR AvgHR WoDuration Calories EnoughFiber pulses
##    <dbl> <dbl> <dbl>      <dbl>    <dbl> <chr>        <dbl>
##  1     1   184   149         65     1677 No            9685
##  2     2   175   109         64     1683 No            6976
##  3     3   184   116         80     1686 No            9280
##  4     4   160   100         59     1684 No            5900
##  5     5   180   142         68     1682 No            9656
##  6     6   170   124         70     1068 No            8680
##  7     7   180   142         85     1680 No           12070
##  8     8   160   100         86     2250 Yes           8600
##  9     9   169   116         89     1686 No           10324
## 10    10   165   108         68     1689 No            7344
## # … with 40 more rows

bigboi %>% filter(EnoughFiber == "Yes") %>% arrange(Calories)

## # A tibble: 5 x 6
##     Day MaxHR AvgHR WoDuration Calories EnoughFiber
##   <dbl> <dbl> <dbl>      <dbl>    <dbl> <chr>      
## 1    50   181   117         68     1698 Yes        
## 2    34   175   130         68     1900 Yes        
## 3    26   183    98         62     2100 Yes        
## 4    38   179   102         75     2200 Yes        
## 5     8   160   100         86     2250 Yes

bigboi %>% select(MaxHR, AvgHR, Calories)

## # A tibble: 50 x 3
##    MaxHR AvgHR Calories
##    <dbl> <dbl>    <dbl>
##  1   184   149     1677
##  2   175   109     1683
##  3   184   116     1686
##  4   160   100     1684
##  5   180   142     1682
##  6   170   124     1068
##  7   180   142     1680
##  8   160   100     2250
##  9   169   116     1686
## 10   165   108     1689
## # … with 40 more rows

bigboi %>% group_by(Day)

## # A tibble: 50 x 6
## # Groups:   Day [50]
##      Day MaxHR AvgHR WoDuration Calories EnoughFiber
##    <dbl> <dbl> <dbl>      <dbl>    <dbl> <chr>      
##  1     1   184   149         65     1677 No         
##  2     2   175   109         64     1683 No         
##  3     3   184   116         80     1686 No         
##  4     4   160   100         59     1684 No         
##  5     5   180   142         68     1682 No         
##  6     6   170   124         70     1068 No         
##  7     7   180   142         85     1680 No         
##  8     8   160   100         86     2250 Yes        
##  9     9   169   116         89     1686 No         
## 10    10   165   108         68     1689 No         
## # … with 40 more rows
…
cormut

##                    Day      MaxHR       AvgHR  WoDuration    Calories
## Day         1.00000000  0.4729713  0.02681194 -0.06910755  0.06520612
## MaxHR       0.47297134  1.0000000  0.43611917 -0.15715363 -0.11497974
## AvgHR       0.02681194  0.4361192  1.00000000 -0.27870889 -0.18054416
## WoDuration -0.06910755 -0.1571536 -0.27870889  1.00000000  0.14482734
## Calories    0.06520612 -0.1149797 -0.18054416  0.14482734  1.00000000

tidycorr <- cormut %>% as.data.frame %>% rownames_to_column("var1") %>% 
    pivot_longer(-1, names_to = "var2", values_to = "correlation")

tidycorr

## # A tibble: 25 x 3
##    var1  var2       correlation
##    <chr> <chr>            <dbl>
##  1 Day   Day             1     
##  2 Day   MaxHR           0.473 
##  3 Day   AvgHR           0.0268
##  4 Day   WoDuration     -0.0691
##  5 Day   Calories        0.0652
##  6 MaxHR Day             0.473 
##  7 MaxHR MaxHR           1     
##  8 MaxHR AvgHR           0.436 
##  9 MaxHR WoDuration     -0.157 
## 10 MaxHR Calories       -0.115 
## # … with 15 more rows
…
For the correlation heatmap, none of the variables have what is considered a strong relationship but interestingly the MaxHR and AvgHR have the greatest correlation of all the pairs that were looked at. The pair with the lowest was WoDuration and Calories. Moving on to the scatter plot, we see that there is a general appearance of a positive correlation between AvgHR and MaxHR but as noted with the correlation matrix, there is not truly a positive relationship here. Another thing to note is that the low fiber points are clustered more towards the lower part of the AvgHR when compared to the high fiber groups. Now for the last graph a big thing that jumped out at me is that there is quite a bit of spacing between the 60 minute and 76 minute mark. What this indicates that most of the workouts I did were around that time frame. Save for certain bars, the calories per minute are pretty consistent. I’d imagine it’s because I was in a bigger caloric deficit when I did my longer workouts.

Clustering

library(cluster)

bigboi

## # A tibble: 50 x 6
##      Day MaxHR AvgHR WoDuration Calories EnoughFiber
##    <dbl> <dbl> <dbl>      <dbl>    <dbl> <chr>      
##  1     1   184   149         65     1677 No         
##  2     2   175   109         64     1683 No         
##  3     3   184   116         80     1686 No         
##  4     4   160   100         59     1684 No         
##  5     5   180   142         68     1682 No         
##  6     6   170   124         70     1068 No         
##  7     7   180   142         85     1680 No         
##  8     8   160   100         86     2250 Yes        
##  9     9   169   116         89     1686 No         
## 10    10   165   108         68     1689 No         
## # … with 40 more rows
…
