Project 2: Modeling, Testing, and Predicting
…
         January 1, 0001 

#0.

This project was a very interesting one and as such I thought loud and hard about what data I was going to use for it! I am quite passionate about health and fitness. The variables that I collected using MyFitnessPal are Calories, which is the number that I consumed each day and EnoughFiber which is whether or not I got the recommended amount of fiber for the day. The variables that I got from my workout tracker are MaxHR, which is my maximum heart rate, AvgHR, which is my average heart rate, and WoDuration which is the duration of my workout. I expect that there will be a positive correlation between AvgHR and MaxHR.

#1.

library(tidyverse)
HeartRateStats <- read_csv("HeartRateStatsss.csv")
HR <- HeartRateStats
HR

## # A tibble: 50 x 4
##      Day MaxHR AvgHR WoDuration
##    <dbl> <dbl> <dbl>      <dbl>
##  1     1   184   149         65
##  2     2   175   109         64
##  3     3   184   116         80
##  4     4   160   100         59
##  5     5   180   142         68
##  6     6   170   124         70
##  7     7   180   142         85
##  8     8   160   100         86
##  9     9   169   116         89
## 10    10   165   108         68
## # … with 40 more rows

MyFitnessPalStatsProject <- read_csv("MyFitnessPalStatsProject.csv")

bigboi <- full_join(HR, MyFitnessPalStatsProject, by = c("Day"))

bigboi

## # A tibble: 50 x 6
##      Day MaxHR AvgHR WoDuration Calories EnoughFiber
##    <dbl> <dbl> <dbl>      <dbl>    <dbl> <chr>      
##  1     1   184   149         65     1677 No         
##  2     2   175   109         64     1683 No         
##  3     3   184   116         80     1686 No         
##  4     4   160   100         59     1684 No         
##  5     5   180   142         68     1682 No         
##  6     6   170   124         70     1068 No         
##  7     7   180   142         85     1680 No         
##  8     8   160   100         86     2250 Yes        
##  9     9   169   116         89     1686 No         
## 10    10   165   108         68     1689 No         
## # … with 40 more rows
…
mean(Fs > obs_F)

## [1] 0.4941

The null is that there is no significant difference between the EnoughFiber groups when it comes to Calories. The alternative hypothesis is that there is a significant difference between the EnoughFiber groups when it comes to calories. The results of the test indicates that we should reject our null and conclude that there is a significant difference between EnoughFiber groups when it comes to calories!

#3

# install.packages('lmtest')
library(lmtest)
library(sandwich)
library(tidyverse)
bigboi

## # A tibble: 50 x 6
##      Day MaxHR AvgHR WoDuration Calories EnoughFiber
##    <dbl> <dbl> <dbl>      <dbl>    <dbl> <chr>      
##  1     1   184   149         65     1677 No         
##  2     2   175   109         64     1683 No         
##  3     3   184   116         80     1686 No         
##  4     4   160   100         59     1684 No         
##  5     5   180   142         68     1682 No         
##  6     6   170   124         70     1068 No         
##  7     7   180   142         85     1680 No         
##  8     8   160   100         86     2250 Yes        
##  9     9   169   116         89     1686 No         
## 10    10   165   108         68     1689 No         
## # … with 40 more rows
…
shapiro.test(residss)

## 
##  Shapiro-Wilk normality test
## 
## data:  residss
## W = 0.89629, p-value = 0.0003631

Given the result of the Shapiro-Wilk test, we can see that the data meets the normality assumption and a bptest shows that the data is indeed linear.The model explains 0.16 proportion of the variation of the dependent variable. The robust std errors are much greater overall! This means that our p-value will usually be greater and our power is increased! Looking at the coefficients one by one we see for every increase in minute of daily workouts for average days, calorie consumption increase by 3.3689 when holding average heartrate constant. Next when we look at AvgHR, we see that for average days with each increase of heartrate we see that calories decrease by 2.27. Those with average WoDuration and Averag AvgHR have 0.386 less calories than the average calorie amount per day.

#4

bigboi

## # A tibble: 50 x 9
## Day MaxHR AvgHR WoDuration Calories EnoughFiber
Woduration_C Calaories_c AvgHR_c
## <dbl> <dbl> <dbl> <dbl> <dbl> <chr> <dbl> <dbl> <dbl>
## 1 1 184 149 65 1677 No -1.76 9.54 24.4
## 2 2 175 109 64 1683 No -2.76 15.5 -15.6
## 3 3 184 116 80 1686 No 13.2 18.5 -8.62
## 4 4 160 100 59 1684 No -7.76 16.5 -24.6
## 5 5 180 142 68 1682 No 1.24 14.5 17.4
## 6 6 170 124 70 1068 No 3.24 -599.  -0.62
## 7 7 180 142 85 1680 No 18.2 12.5 17.4
## 8 8 160 100 86 2250 Yes 19.2 583.  -24.6
## 9 9 169 116 89 1686 No 22.2 18.5 -8.62
## 10 10 165 108 68 1689 No 1.24 21.5 -16.6
## # … with 40 more rows
…
## # A tibble: 6 x 10
## Day MaxHR AvgHR WoDuration Calories EnoughFiber
Woduration_C Calaories_c AvgHR_c y
## <dbl> <dbl> <dbl> <dbl> <dbl> <chr> <dbl> <dbl> <dbl>
<dbl>
## 1 1 184 149 65 1677 No -1.76 9.54 24.4 0
## 2 2 175 109 64 1683 No -2.76 15.5 -15.6 0
## 3 3 184 116 80 1686 No 13.2 18.5 -8.62 0
## 4 4 160 100 59 1684 No -7.76 16.5 -24.6 0
## 5 5 180 142 68 1682 No 1.24 14.5 17.4 0
## 6 6 170 124 70 1068 No 3.24 -599.  -0.62 0

bigboi

## # A tibble: 50 x 9
## Day MaxHR AvgHR WoDuration Calories EnoughFiber
Woduration_C Calaories_c AvgHR_c
## <dbl> <dbl> <dbl> <dbl> <dbl> <chr> <dbl> <dbl> <dbl>
## 1 1 184 149 65 1677 No -1.76 9.54 24.4
## 2 2 175 109 64 1683 No -2.76 15.5 -15.6
## 3 3 184 116 80 1686 No 13.2 18.5 -8.62
## 4 4 160 100 59 1684 No -7.76 16.5 -24.6
## 5 5 180 142 68 1682 No 1.24 14.5 17.4
## 6 6 170 124 70 1068 No 3.24 -599.  -0.62
## 7 7 180 142 85 1680 No 18.2 12.5 17.4
## 8 8 160 100 86 2250 Yes 19.2 583.  -24.6
## 9 9 169 116 89 1686 No 22.2 18.5 -8.62
## 10 10 165 108 68 1689 No 1.24 21.5 -16.6
## # … with 40 more rows
…
The AUC is 0.98 which is great and the accuracy, sensitivity, specificity and precision are all pretty high! Going up 1 calorie increase the odds of the day containing enough fiber by 1.03 while going up 1 heart rate unit increases the same odd by 0.980.

#6

bigboi

## # A tibble: 50 x 9
## Day MaxHR AvgHR WoDuration Calories EnoughFiber
Woduration_C Calaories_c AvgHR_c
## <dbl> <dbl> <dbl> <dbl> <dbl> <chr> <dbl> <dbl> <dbl>
## 1 1 184 149 65 1677 No -1.76 9.54 24.4
## 2 2 175 109 64 1683 No -2.76 15.5 -15.6
## 3 3 184 116 80 1686 No 13.2 18.5 -8.62
## 4 4 160 100 59 1684 No -7.76 16.5 -24.6
## 5 5 180 142 68 1682 No 1.24 14.5 17.4
## 6 6 170 124 70 1068 No 3.24 -599.  -0.62
## 7 7 180 142 85 1680 No 18.2 12.5 17.4
## 8 8 160 100 86 2250 Yes 19.2 583.  -24.6
## 9 9 169 116 89 1686 No 22.2 18.5 -8.62
## 10 10 165 108 68 1689 No 1.24 21.5 -16.6
## # … with 40 more rows
…
## Day MaxHR AvgHR WoDuration Calories EnoughFiberYes
Woduration_C Calaories_c AvgHR_c logit
## 1 1 184 149 65 1677 0 -1.76 9.54 24.38 -4.448505
## 2 2 175 109 64 1683 0 -2.76 15.54 -15.62 -3.442930
## 3 3 184 116 80 1686 0 13.24 18.54 -8.62 -3.482215
## 4 4 160 100 59 1684 0 -7.76 16.54 -24.62 -3.228488
## 5 5 180 142 68 1682 0 1.24 14.54 17.38 -4.139214
## 6 6 170 124 70 1068 0 3.24 -599.46 -0.62 -24.500839

data

## # A tibble: 50 x 11
## Day MaxHR AvgHR WoDuration Calories EnoughFiber
Woduration_C Calaories_c AvgHR_c y logit
## <dbl> <dbl> <dbl> <dbl> <dbl> <chr> <dbl> <dbl> <dbl>
<dbl> <dbl>
## 1 1 184 149 65 1677 No -1.76 9.54 24.4 0 -4.45
## 2 2 175 109 64 1683 No -2.76 15.5 -15.6 0 -3.44
## 3 3 184 116 80 1686 No 13.2 18.5 -8.62 0 -3.48
## 4 4 160 100 59 1684 No -7.76 16.5 -24.6 0 -3.23
## 5 5 180 142 68 1682 No 1.24 14.5 17.4 0 -4.14
## 6 6 170 124 70 1068 No 3.24 -599.  -0.62 0 -24.5
## 7 7 180 142 85 1680 No 18.2 12.5 17.4 0 -4.21
## 8 8 160 100 86 2250 Yes 19.2 583.  -24.6 1 15.9
## 9 9 169 116 89 1686 No 22.2 18.5 -8.62 0 -3.48
## 10 10 165 108 68 1689 No 1.24 21.5 -16.6 0 -3.22
## # … with 40 more rows
…
library(tidyverse)

lassofit <- glm(y ~ EnoughFiber, data = data, family = "binomial")

lassodata <- data %>% mutate(EnoughFiber = ifelse(EnoughFiber == 
    "Yes", 1, 0))

lassodata

## # A tibble: 50 x 11
## Day MaxHR AvgHR WoDuration Calories EnoughFiber
Woduration_C Calaories_c AvgHR_c y logit
## <dbl> <dbl> <dbl> <dbl> <dbl> <dbl> <dbl> <dbl> <dbl>
<dbl> <dbl>
## 1 1 184 149 65 1677 0 -1.76 9.54 24.4 0 -4.45
## 2 2 175 109 64 1683 0 -2.76 15.5 -15.6 0 -3.44
## 3 3 184 116 80 1686 0 13.2 18.5 -8.62 0 -3.48
## 4 4 160 100 59 1684 0 -7.76 16.5 -24.6 0 -3.23
## 5 5 180 142 68 1682 0 1.24 14.5 17.4 0 -4.14
## 6 6 170 124 70 1068 0 3.24 -599.  -0.62 0 -24.5
## 7 7 180 142 85 1680 0 18.2 12.5 17.4 0 -4.21
## 8 8 160 100 86 2250 1 19.2 583.  -24.6 1 15.9
## 9 9 169 116 89 1686 0 22.2 18.5 -8.62 0 -3.48
## 10 10 165 108 68 1689 0 1.24 21.5 -16.6 0 -3.22
## # … with 40 more rows
…
